src/rectified_design_output_capture.txt
VCD info: dumpfile fifo_dump.vcd opened for output.
T=5000 | WR=0 RD=0 | DIN=0 | DOUT=0 | REF_COUNT=0 | DUT_FULL=0 DUT_EMPTY=1
T=15000 | WR=0 RD=0 | DIN=0 | DOUT=0 | REF_COUNT=0 | DUT_FULL=0 DUT_EMPTY=1
T=25000 | WR=0 RD=0 | DIN=0 | DOUT=0 | REF_COUNT=0 | DUT_FULL=0 DUT_EMPTY=1
T=35000 | WR=0 RD=0 | DIN=0 | DOUT=0 | REF_COUNT=0 | DUT_FULL=0 DUT_EMPTY=1

===== MANUAL 16 WRITE / READ =====
T=45000 | WR=1 RD=0 | DIN=10 | DOUT=0 | REF_COUNT=1 | DUT_FULL=0 DUT_EMPTY=1
T=55000 | WR=1 RD=0 | DIN=10 | DOUT=0 | REF_COUNT=1 | DUT_FULL=0 DUT_EMPTY=0
T=65000 | WR=1 RD=0 | DIN=11 | DOUT=0 | REF_COUNT=2 | DUT_FULL=0 DUT_EMPTY=0
T=75000 | WR=1 RD=0 | DIN=11 | DOUT=0 | REF_COUNT=2 | DUT_FULL=0 DUT_EMPTY=0
T=85000 | WR=1 RD=0 | DIN=12 | DOUT=0 | REF_COUNT=3 | DUT_FULL=0 DUT_EMPTY=0
T=95000 | WR=1 RD=0 | DIN=12 | DOUT=0 | REF_COUNT=3 | DUT_FULL=0 DUT_EMPTY=0
T=105000 | WR=1 RD=0 | DIN=13 | DOUT=0 | REF_COUNT=4 | DUT_FULL=0 DUT_EMPTY=0
T=115000 | WR=1 RD=0 | DIN=13 | DOUT=0 | REF_COUNT=4 | DUT_FULL=0 DUT_EMPTY=0
T=125000 | WR=1 RD=0 | DIN=14 | DOUT=0 | REF_COUNT=5 | DUT_FULL=0 DUT_EMPTY=0
T=135000 | WR=1 RD=0 | DIN=14 | DOUT=0 | REF_COUNT=5 | DUT_FULL=0 DUT_EMPTY=0
T=145000 | WR=1 RD=0 | DIN=15 | DOUT=0 | REF_COUNT=6 | DUT_FULL=0 DUT_EMPTY=0
T=155000 | WR=1 RD=0 | DIN=15 | DOUT=0 | REF_COUNT=6 | DUT_FULL=0 DUT_EMPTY=0
T=165000 | WR=1 RD=0 | DIN=16 | DOUT=0 | REF_COUNT=7 | DUT_FULL=0 DUT_EMPTY=0
T=175000 | WR=1 RD=0 | DIN=16 | DOUT=0 | REF_COUNT=7 | DUT_FULL=0 DUT_EMPTY=0
T=185000 | WR=1 RD=0 | DIN=17 | DOUT=0 | REF_COUNT=8 | DUT_FULL=0 DUT_EMPTY=0
T=195000 | WR=1 RD=0 | DIN=17 | DOUT=0 | REF_COUNT=8 | DUT_FULL=0 DUT_EMPTY=0
T=205000 | WR=1 RD=0 | DIN=18 | DOUT=0 | REF_COUNT=9 | DUT_FULL=0 DUT_EMPTY=0
T=215000 | WR=1 RD=0 | DIN=18 | DOUT=0 | REF_COUNT=9 | DUT_FULL=0 DUT_EMPTY=0
T=225000 | WR=1 RD=0 | DIN=19 | DOUT=0 | REF_COUNT=10 | DUT_FULL=0 DUT_EMPTY=0
T=235000 | WR=1 RD=0 | DIN=19 | DOUT=0 | REF_COUNT=10 | DUT_FULL=0 DUT_EMPTY=0
T=245000 | WR=1 RD=0 | DIN=20 | DOUT=0 | REF_COUNT=11 | DUT_FULL=0 DUT_EMPTY=0
T=255000 | WR=1 RD=0 | DIN=20 | DOUT=0 | REF_COUNT=11 | DUT_FULL=0 DUT_EMPTY=0
T=265000 | WR=1 RD=0 | DIN=21 | DOUT=0 | REF_COUNT=12 | DUT_FULL=0 DUT_EMPTY=0
T=275000 | WR=1 RD=0 | DIN=21 | DOUT=0 | REF_COUNT=12 | DUT_FULL=0 DUT_EMPTY=0
T=285000 | WR=1 RD=0 | DIN=22 | DOUT=0 | REF_COUNT=13 | DUT_FULL=0 DUT_EMPTY=0
T=295000 | WR=1 RD=0 | DIN=22 | DOUT=0 | REF_COUNT=13 | DUT_FULL=0 DUT_EMPTY=0
T=305000 | WR=1 RD=0 | DIN=23 | DOUT=0 | REF_COUNT=14 | DUT_FULL=0 DUT_EMPTY=0
T=315000 | WR=1 RD=0 | DIN=23 | DOUT=0 | REF_COUNT=14 | DUT_FULL=0 DUT_EMPTY=0
T=325000 | WR=1 RD=0 | DIN=24 | DOUT=0 | REF_COUNT=15 | DUT_FULL=0 DUT_EMPTY=0
T=335000 | WR=1 RD=0 | DIN=24 | DOUT=0 | REF_COUNT=15 | DUT_FULL=0 DUT_EMPTY=0
T=345000 | WR=1 RD=0 | DIN=25 | DOUT=0 | REF_COUNT=16 | DUT_FULL=0 DUT_EMPTY=0
T=355000 | WR=1 RD=0 | DIN=25 | DOUT=0 | REF_COUNT=16 | DUT_FULL=1 DUT_EMPTY=0
DUT FULL asserted
T=365000 | WR=0 RD=1 | DIN=25 | DOUT=0 | REF_COUNT=15 | DUT_FULL=1 DUT_EMPTY=0
T=375000 | WR=0 RD=1 | DIN=25 | DOUT=10 | REF_COUNT=15 | DUT_FULL=0 DUT_EMPTY=0
PASS: Expected=10 Actual=10
T=385000 | WR=0 RD=1 | DIN=25 | DOUT=10 | REF_COUNT=14 | DUT_FULL=0 DUT_EMPTY=0
T=395000 | WR=0 RD=1 | DIN=25 | DOUT=11 | REF_COUNT=14 | DUT_FULL=0 DUT_EMPTY=0
PASS: Expected=11 Actual=11
T=405000 | WR=0 RD=1 | DIN=25 | DOUT=11 | REF_COUNT=13 | DUT_FULL=0 DUT_EMPTY=0
T=415000 | WR=0 RD=1 | DIN=25 | DOUT=12 | REF_COUNT=13 | DUT_FULL=0 DUT_EMPTY=0
PASS: Expected=12 Actual=12
T=425000 | WR=0 RD=1 | DIN=25 | DOUT=12 | REF_COUNT=12 | DUT_FULL=0 DUT_EMPTY=0
T=435000 | WR=0 RD=1 | DIN=25 | DOUT=13 | REF_COUNT=12 | DUT_FULL=0 DUT_EMPTY=0
PASS: Expected=13 Actual=13
T=445000 | WR=0 RD=1 | DIN=25 | DOUT=13 | REF_COUNT=11 | DUT_FULL=0 DUT_EMPTY=0
T=455000 | WR=0 RD=1 | DIN=25 | DOUT=14 | REF_COUNT=11 | DUT_FULL=0 DUT_EMPTY=0
PASS: Expected=14 Actual=14
T=465000 | WR=0 RD=1 | DIN=25 | DOUT=14 | REF_COUNT=10 | DUT_FULL=0 DUT_EMPTY=0
T=475000 | WR=0 RD=1 | DIN=25 | DOUT=15 | REF_COUNT=10 | DUT_FULL=0 DUT_EMPTY=0
PASS: Expected=15 Actual=15
T=485000 | WR=0 RD=1 | DIN=25 | DOUT=15 | REF_COUNT=9 | DUT_FULL=0 DUT_EMPTY=0
T=495000 | WR=0 RD=1 | DIN=25 | DOUT=16 | REF_COUNT=9 | DUT_FULL=0 DUT_EMPTY=0
PASS: Expected=16 Actual=16
T=505000 | WR=0 RD=1 | DIN=25 | DOUT=16 | REF_COUNT=8 | DUT_FULL=0 DUT_EMPTY=0
T=515000 | WR=0 RD=1 | DIN=25 | DOUT=17 | REF_COUNT=8 | DUT_FULL=0 DUT_EMPTY=0
PASS: Expected=17 Actual=17
T=525000 | WR=0 RD=1 | DIN=25 | DOUT=17 | REF_COUNT=7 | DUT_FULL=0 DUT_EMPTY=0
T=535000 | WR=0 RD=1 | DIN=25 | DOUT=18 | REF_COUNT=7 | DUT_FULL=0 DUT_EMPTY=0
PASS: Expected=18 Actual=18
T=545000 | WR=0 RD=1 | DIN=25 | DOUT=18 | REF_COUNT=6 | DUT_FULL=0 DUT_EMPTY=0
T=555000 | WR=0 RD=1 | DIN=25 | DOUT=19 | REF_COUNT=6 | DUT_FULL=0 DUT_EMPTY=0
PASS: Expected=19 Actual=19
T=565000 | WR=0 RD=1 | DIN=25 | DOUT=19 | REF_COUNT=5 | DUT_FULL=0 DUT_EMPTY=0
T=575000 | WR=0 RD=1 | DIN=25 | DOUT=20 | REF_COUNT=5 | DUT_FULL=0 DUT_EMPTY=0
PASS: Expected=20 Actual=20
T=585000 | WR=0 RD=1 | DIN=25 | DOUT=20 | REF_COUNT=4 | DUT_FULL=0 DUT_EMPTY=0
T=595000 | WR=0 RD=1 | DIN=25 | DOUT=21 | REF_COUNT=4 | DUT_FULL=0 DUT_EMPTY=0
PASS: Expected=21 Actual=21
T=605000 | WR=0 RD=1 | DIN=25 | DOUT=21 | REF_COUNT=3 | DUT_FULL=0 DUT_EMPTY=0
T=615000 | WR=0 RD=1 | DIN=25 | DOUT=22 | REF_COUNT=3 | DUT_FULL=0 DUT_EMPTY=0
PASS: Expected=22 Actual=22
T=625000 | WR=0 RD=1 | DIN=25 | DOUT=22 | REF_COUNT=2 | DUT_FULL=0 DUT_EMPTY=0
T=635000 | WR=0 RD=1 | DIN=25 | DOUT=23 | REF_COUNT=2 | DUT_FULL=0 DUT_EMPTY=0
PASS: Expected=23 Actual=23
T=645000 | WR=0 RD=1 | DIN=25 | DOUT=23 | REF_COUNT=1 | DUT_FULL=0 DUT_EMPTY=0
T=655000 | WR=0 RD=1 | DIN=25 | DOUT=24 | REF_COUNT=1 | DUT_FULL=0 DUT_EMPTY=0
PASS: Expected=24 Actual=24
T=665000 | WR=0 RD=1 | DIN=25 | DOUT=24 | REF_COUNT=0 | DUT_FULL=0 DUT_EMPTY=0
T=675000 | WR=0 RD=1 | DIN=25 | DOUT=25 | REF_COUNT=0 | DUT_FULL=0 DUT_EMPTY=1
PASS: Expected=25 Actual=25
DUT EMPTY asserted
===== END MANUAL TEST =====


===== RANDOM STRESS START =====
T=685000 | WR=0 RD=0 | DIN=25 | DOUT=25 | REF_COUNT=0 | DUT_FULL=0 DUT_EMPTY=1
EXPECTED UNDERFLOW (reference empty)
T=695000 | WR=0 RD=1 | DIN=25 | DOUT=25 | REF_COUNT=0 | DUT_FULL=0 DUT_EMPTY=1
T=705000 | WR=0 RD=1 | DIN=25 | DOUT=25 | REF_COUNT=0 | DUT_FULL=0 DUT_EMPTY=1
T=715000 | WR=0 RD=0 | DIN=25 | DOUT=25 | REF_COUNT=0 | DUT_FULL=0 DUT_EMPTY=1
T=725000 | WR=1 RD=0 | DIN=9 | DOUT=25 | REF_COUNT=1 | DUT_FULL=0 DUT_EMPTY=1
T=735000 | WR=1 RD=0 | DIN=9 | DOUT=25 | REF_COUNT=1 | DUT_FULL=0 DUT_EMPTY=0
T=745000 | WR=0 RD=0 | DIN=9 | DOUT=25 | REF_COUNT=1 | DUT_FULL=0 DUT_EMPTY=0
T=755000 | WR=1 RD=0 | DIN=13 | DOUT=25 | REF_COUNT=2 | DUT_FULL=0 DUT_EMPTY=0
T=765000 | WR=1 RD=0 | DIN=13 | DOUT=25 | REF_COUNT=2 | DUT_FULL=0 DUT_EMPTY=0
T=775000 | WR=0 RD=0 | DIN=13 | DOUT=25 | REF_COUNT=2 | DUT_FULL=0 DUT_EMPTY=0
T=785000 | WR=1 RD=0 | DIN=101 | DOUT=25 | REF_COUNT=3 | DUT_FULL=0 DUT_EMPTY=0
T=795000 | WR=1 RD=0 | DIN=101 | DOUT=25 | REF_COUNT=3 | DUT_FULL=0 DUT_EMPTY=0
T=805000 | WR=0 RD=0 | DIN=101 | DOUT=25 | REF_COUNT=3 | DUT_FULL=0 DUT_EMPTY=0
T=815000 | WR=0 RD=1 | DIN=101 | DOUT=25 | REF_COUNT=2 | DUT_FULL=0 DUT_EMPTY=0
T=825000 | WR=0 RD=1 | DIN=101 | DOUT=9 | REF_COUNT=2 | DUT_FULL=0 DUT_EMPTY=0
PASS: Expected=9 Actual=9
T=835000 | WR=0 RD=0 | DIN=101 | DOUT=9 | REF_COUNT=2 | DUT_FULL=0 DUT_EMPTY=0
T=845000 | WR=1 RD=0 | DIN=13 | DOUT=9 | REF_COUNT=3 | DUT_FULL=0 DUT_EMPTY=0
T=855000 | WR=1 RD=0 | DIN=13 | DOUT=9 | REF_COUNT=3 | DUT_FULL=0 DUT_EMPTY=0
T=865000 | WR=0 RD=0 | DIN=13 | DOUT=9 | REF_COUNT=3 | DUT_FULL=0 DUT_EMPTY=0
T=875000 | WR=0 RD=1 | DIN=13 | DOUT=9 | REF_COUNT=2 | DUT_FULL=0 DUT_EMPTY=0
T=885000 | WR=0 RD=1 | DIN=13 | DOUT=13 | REF_COUNT=2 | DUT_FULL=0 DUT_EMPTY=0
PASS: Expected=13 Actual=13
T=895000 | WR=0 RD=0 | DIN=13 | DOUT=13 | REF_COUNT=2 | DUT_FULL=0 DUT_EMPTY=0
T=905000 | WR=1 RD=0 | DIN=237 | DOUT=13 | REF_COUNT=3 | DUT_FULL=0 DUT_EMPTY=0
T=915000 | WR=1 RD=0 | DIN=237 | DOUT=13 | REF_COUNT=3 | DUT_FULL=0 DUT_EMPTY=0
T=925000 | WR=0 RD=0 | DIN=237 | DOUT=13 | REF_COUNT=3 | DUT_FULL=0 DUT_EMPTY=0
T=935000 | WR=0 RD=1 | DIN=237 | DOUT=13 | REF_COUNT=2 | DUT_FULL=0 DUT_EMPTY=0
T=945000 | WR=0 RD=1 | DIN=237 | DOUT=101 | REF_COUNT=2 | DUT_FULL=0 DUT_EMPTY=0
PASS: Expected=101 Actual=101
T=955000 | WR=0 RD=0 | DIN=237 | DOUT=101 | REF_COUNT=2 | DUT_FULL=0 DUT_EMPTY=0
T=965000 | WR=1 RD=0 | DIN=198 | DOUT=101 | REF_COUNT=3 | DUT_FULL=0 DUT_EMPTY=0
T=975000 | WR=1 RD=0 | DIN=198 | DOUT=101 | REF_COUNT=3 | DUT_FULL=0 DUT_EMPTY=0
T=985000 | WR=0 RD=0 | DIN=198 | DOUT=101 | REF_COUNT=3 | DUT_FULL=0 DUT_EMPTY=0
T=995000 | WR=1 RD=0 | DIN=170 | DOUT=101 | REF_COUNT=4 | DUT_FULL=0 DUT_EMPTY=0
T=1005000 | WR=1 RD=0 | DIN=170 | DOUT=101 | REF_COUNT=4 | DUT_FULL=0 DUT_EMPTY=0
T=1015000 | WR=0 RD=0 | DIN=170 | DOUT=101 | REF_COUNT=4 | DUT_FULL=0 DUT_EMPTY=0
T=1025000 | WR=1 RD=0 | DIN=119 | DOUT=101 | REF_COUNT=5 | DUT_FULL=0 DUT_EMPTY=0
T=1035000 | WR=1 RD=0 | DIN=119 | DOUT=101 | REF_COUNT=5 | DUT_FULL=0 DUT_EMPTY=0
T=1045000 | WR=0 RD=0 | DIN=119 | DOUT=101 | REF_COUNT=5 | DUT_FULL=0 DUT_EMPTY=0
T=1055000 | WR=0 RD=1 | DIN=119 | DOUT=101 | REF_COUNT=4 | DUT_FULL=0 DUT_EMPTY=0
T=1065000 | WR=0 RD=1 | DIN=119 | DOUT=13 | REF_COUNT=4 | DUT_FULL=0 DUT_EMPTY=0
PASS: Expected=13 Actual=13
T=1075000 | WR=0 RD=0 | DIN=119 | DOUT=13 | REF_COUNT=4 | DUT_FULL=0 DUT_EMPTY=0
T=1085000 | WR=1 RD=0 | DIN=242 | DOUT=13 | REF_COUNT=5 | DUT_FULL=0 DUT_EMPTY=0
T=1095000 | WR=1 RD=0 | DIN=242 | DOUT=13 | REF_COUNT=5 | DUT_FULL=0 DUT_EMPTY=0
T=1105000 | WR=0 RD=0 | DIN=242 | DOUT=13 | REF_COUNT=5 | DUT_FULL=0 DUT_EMPTY=0
T=1115000 | WR=0 RD=1 | DIN=242 | DOUT=13 | REF_COUNT=4 | DUT_FULL=0 DUT_EMPTY=0
T=1125000 | WR=0 RD=1 | DIN=242 | DOUT=237 | REF_COUNT=4 | DUT_FULL=0 DUT_EMPTY=0
PASS: Expected=237 Actual=237
T=1135000 | WR=0 RD=0 | DIN=242 | DOUT=237 | REF_COUNT=4 | DUT_FULL=0 DUT_EMPTY=0
T=1145000 | WR=0 RD=1 | DIN=242 | DOUT=237 | REF_COUNT=3 | DUT_FULL=0 DUT_EMPTY=0
T=1155000 | WR=0 RD=1 | DIN=242 | DOUT=198 | REF_COUNT=3 | DUT_FULL=0 DUT_EMPTY=0
PASS: Expected=198 Actual=198
T=1165000 | WR=0 RD=0 | DIN=242 | DOUT=198 | REF_COUNT=3 | DUT_FULL=0 DUT_EMPTY=0
T=1175000 | WR=1 RD=0 | DIN=92 | DOUT=198 | REF_COUNT=4 | DUT_FULL=0 DUT_EMPTY=0
T=1185000 | WR=1 RD=0 | DIN=92 | DOUT=198 | REF_COUNT=4 | DUT_FULL=0 DUT_EMPTY=0
T=1195000 | WR=0 RD=0 | DIN=92 | DOUT=198 | REF_COUNT=4 | DUT_FULL=0 DUT_EMPTY=0
T=1205000 | WR=1 RD=0 | DIN=45 | DOUT=198 | REF_COUNT=5 | DUT_FULL=0 DUT_EMPTY=0
T=1215000 | WR=1 RD=0 | DIN=45 | DOUT=198 | REF_COUNT=5 | DUT_FULL=0 DUT_EMPTY=0
T=1225000 | WR=0 RD=0 | DIN=45 | DOUT=198 | REF_COUNT=5 | DUT_FULL=0 DUT_EMPTY=0
T=1235000 | WR=1 RD=0 | DIN=99 | DOUT=198 | REF_COUNT=6 | DUT_FULL=0 DUT_EMPTY=0
T=1245000 | WR=1 RD=0 | DIN=99 | DOUT=198 | REF_COUNT=6 | DUT_FULL=0 DUT_EMPTY=0
T=1255000 | WR=0 RD=0 | DIN=99 | DOUT=198 | REF_COUNT=6 | DUT_FULL=0 DUT_EMPTY=0
T=1265000 | WR=0 RD=1 | DIN=99 | DOUT=198 | REF_COUNT=5 | DUT_FULL=0 DUT_EMPTY=0
T=1275000 | WR=0 RD=1 | DIN=99 | DOUT=170 | REF_COUNT=5 | DUT_FULL=0 DUT_EMPTY=0
PASS: Expected=170 Actual=170
T=1285000 | WR=0 RD=0 | DIN=99 | DOUT=170 | REF_COUNT=5 | DUT_FULL=0 DUT_EMPTY=0
T=1295000 | WR=0 RD=1 | DIN=99 | DOUT=170 | REF_COUNT=4 | DUT_FULL=0 DUT_EMPTY=0
T=1305000 | WR=0 RD=1 | DIN=99 | DOUT=119 | REF_COUNT=4 | DUT_FULL=0 DUT_EMPTY=0
PASS: Expected=119 Actual=119
T=1315000 | WR=0 RD=0 | DIN=99 | DOUT=119 | REF_COUNT=4 | DUT_FULL=0 DUT_EMPTY=0
T=1325000 | WR=0 RD=1 | DIN=99 | DOUT=119 | REF_COUNT=3 | DUT_FULL=0 DUT_EMPTY=0
T=1335000 | WR=0 RD=1 | DIN=99 | DOUT=242 | REF_COUNT=3 | DUT_FULL=0 DUT_EMPTY=0
PASS: Expected=242 Actual=242
T=1345000 | WR=0 RD=0 | DIN=99 | DOUT=242 | REF_COUNT=3 | DUT_FULL=0 DUT_EMPTY=0
T=1355000 | WR=0 RD=1 | DIN=99 | DOUT=242 | REF_COUNT=2 | DUT_FULL=0 DUT_EMPTY=0
T=1365000 | WR=0 RD=1 | DIN=99 | DOUT=92 | REF_COUNT=2 | DUT_FULL=0 DUT_EMPTY=0
PASS: Expected=92 Actual=92
T=1375000 | WR=0 RD=0 | DIN=99 | DOUT=92 | REF_COUNT=2 | DUT_FULL=0 DUT_EMPTY=0
T=1385000 | WR=1 RD=0 | DIN=150 | DOUT=92 | REF_COUNT=3 | DUT_FULL=0 DUT_EMPTY=0
T=1395000 | WR=1 RD=0 | DIN=150 | DOUT=92 | REF_COUNT=3 | DUT_FULL=0 DUT_EMPTY=0
T=1405000 | WR=0 RD=0 | DIN=150 | DOUT=92 | REF_COUNT=3 | DUT_FULL=0 DUT_EMPTY=0
T=1415000 | WR=1 RD=0 | DIN=13 | DOUT=92 | REF_COUNT=4 | DUT_FULL=0 DUT_EMPTY=0
T=1425000 | WR=1 RD=0 | DIN=13 | DOUT=92 | REF_COUNT=4 | DUT_FULL=0 DUT_EMPTY=0
T=1435000 | WR=0 RD=0 | DIN=13 | DOUT=92 | REF_COUNT=4 | DUT_FULL=0 DUT_EMPTY=0
T=1445000 | WR=1 RD=0 | DIN=107 | DOUT=92 | REF_COUNT=5 | DUT_FULL=0 DUT_EMPTY=0
T=1455000 | WR=1 RD=0 | DIN=107 | DOUT=92 | REF_COUNT=5 | DUT_FULL=0 DUT_EMPTY=0
T=1465000 | WR=0 RD=0 | DIN=107 | DOUT=92 | REF_COUNT=5 | DUT_FULL=0 DUT_EMPTY=0
T=1475000 | WR=1 RD=0 | DIN=2 | DOUT=92 | REF_COUNT=6 | DUT_FULL=0 DUT_EMPTY=0
T=1485000 | WR=1 RD=0 | DIN=2 | DOUT=92 | REF_COUNT=6 | DUT_FULL=0 DUT_EMPTY=0
T=1495000 | WR=0 RD=0 | DIN=2 | DOUT=92 | REF_COUNT=6 | DUT_FULL=0 DUT_EMPTY=0
T=1505000 | WR=0 RD=1 | DIN=2 | DOUT=92 | REF_COUNT=5 | DUT_FULL=0 DUT_EMPTY=0
T=1515000 | WR=0 RD=1 | DIN=2 | DOUT=45 | REF_COUNT=5 | DUT_FULL=0 DUT_EMPTY=0
PASS: Expected=45 Actual=45
T=1525000 | WR=0 RD=0 | DIN=2 | DOUT=45 | REF_COUNT=5 | DUT_FULL=0 DUT_EMPTY=0
T=1535000 | WR=1 RD=0 | DIN=207 | DOUT=45 | REF_COUNT=6 | DUT_FULL=0 DUT_EMPTY=0
T=1545000 | WR=1 RD=0 | DIN=207 | DOUT=45 | REF_COUNT=6 | DUT_FULL=0 DUT_EMPTY=0
T=1555000 | WR=0 RD=0 | DIN=207 | DOUT=45 | REF_COUNT=6 | DUT_FULL=0 DUT_EMPTY=0
T=1565000 | WR=1 RD=0 | DIN=10 | DOUT=45 | REF_COUNT=7 | DUT_FULL=0 DUT_EMPTY=0
T=1575000 | WR=1 RD=0 | DIN=10 | DOUT=45 | REF_COUNT=7 | DUT_FULL=0 DUT_EMPTY=0
T=1585000 | WR=0 RD=0 | DIN=10 | DOUT=45 | REF_COUNT=7 | DUT_FULL=0 DUT_EMPTY=0
T=1595000 | WR=0 RD=1 | DIN=10 | DOUT=45 | REF_COUNT=6 | DUT_FULL=0 DUT_EMPTY=0
T=1605000 | WR=0 RD=1 | DIN=10 | DOUT=99 | REF_COUNT=6 | DUT_FULL=0 DUT_EMPTY=0
PASS: Expected=99 Actual=99
T=1615000 | WR=0 RD=0 | DIN=10 | DOUT=99 | REF_COUNT=6 | DUT_FULL=0 DUT_EMPTY=0
T=1625000 | WR=0 RD=1 | DIN=10 | DOUT=99 | REF_COUNT=5 | DUT_FULL=0 DUT_EMPTY=0
T=1635000 | WR=0 RD=1 | DIN=10 | DOUT=150 | REF_COUNT=5 | DUT_FULL=0 DUT_EMPTY=0
PASS: Expected=150 Actual=150
T=1645000 | WR=0 RD=0 | DIN=10 | DOUT=150 | REF_COUNT=5 | DUT_FULL=0 DUT_EMPTY=0
T=1655000 | WR=0 RD=1 | DIN=10 | DOUT=150 | REF_COUNT=4 | DUT_FULL=0 DUT_EMPTY=0
T=1665000 | WR=0 RD=1 | DIN=10 | DOUT=13 | REF_COUNT=4 | DUT_FULL=0 DUT_EMPTY=0
PASS: Expected=13 Actual=13
T=1675000 | WR=0 RD=0 | DIN=10 | DOUT=13 | REF_COUNT=4 | DUT_FULL=0 DUT_EMPTY=0
T=1685000 | WR=0 RD=1 | DIN=10 | DOUT=13 | REF_COUNT=3 | DUT_FULL=0 DUT_EMPTY=0
T=1695000 | WR=0 RD=1 | DIN=10 | DOUT=107 | REF_COUNT=3 | DUT_FULL=0 DUT_EMPTY=0
PASS: Expected=107 Actual=107
T=1705000 | WR=0 RD=0 | DIN=10 | DOUT=107 | REF_COUNT=3 | DUT_FULL=0 DUT_EMPTY=0
T=1715000 | WR=1 RD=0 | DIN=216 | DOUT=107 | REF_COUNT=4 | DUT_FULL=0 DUT_EMPTY=0
T=1725000 | WR=1 RD=0 | DIN=216 | DOUT=107 | REF_COUNT=4 | DUT_FULL=0 DUT_EMPTY=0
T=1735000 | WR=0 RD=0 | DIN=216 | DOUT=107 | REF_COUNT=4 | DUT_FULL=0 DUT_EMPTY=0
T=1745000 | WR=0 RD=1 | DIN=216 | DOUT=107 | REF_COUNT=3 | DUT_FULL=0 DUT_EMPTY=0
T=1755000 | WR=0 RD=1 | DIN=216 | DOUT=2 | REF_COUNT=3 | DUT_FULL=0 DUT_EMPTY=0
PASS: Expected=2 Actual=2
T=1765000 | WR=0 RD=0 | DIN=216 | DOUT=2 | REF_COUNT=3 | DUT_FULL=0 DUT_EMPTY=0
T=1775000 | WR=1 RD=0 | DIN=235 | DOUT=2 | REF_COUNT=4 | DUT_FULL=0 DUT_EMPTY=0
T=1785000 | WR=1 RD=0 | DIN=235 | DOUT=2 | REF_COUNT=4 | DUT_FULL=0 DUT_EMPTY=0
T=1795000 | WR=0 RD=0 | DIN=235 | DOUT=2 | REF_COUNT=4 | DUT_FULL=0 DUT_EMPTY=0
T=1805000 | WR=0 RD=1 | DIN=235 | DOUT=2 | REF_COUNT=3 | DUT_FULL=0 DUT_EMPTY=0
T=1815000 | WR=0 RD=1 | DIN=235 | DOUT=207 | REF_COUNT=3 | DUT_FULL=0 DUT_EMPTY=0
PASS: Expected=207 Actual=207
T=1825000 | WR=0 RD=0 | DIN=235 | DOUT=207 | REF_COUNT=3 | DUT_FULL=0 DUT_EMPTY=0
T=1835000 | WR=0 RD=1 | DIN=235 | DOUT=207 | REF_COUNT=2 | DUT_FULL=0 DUT_EMPTY=0
T=1845000 | WR=0 RD=1 | DIN=235 | DOUT=10 | REF_COUNT=2 | DUT_FULL=0 DUT_EMPTY=0
PASS: Expected=10 Actual=10
T=1855000 | WR=0 RD=0 | DIN=235 | DOUT=10 | REF_COUNT=2 | DUT_FULL=0 DUT_EMPTY=0
T=1865000 | WR=0 RD=1 | DIN=235 | DOUT=10 | REF_COUNT=1 | DUT_FULL=0 DUT_EMPTY=0
T=1875000 | WR=0 RD=1 | DIN=235 | DOUT=216 | REF_COUNT=1 | DUT_FULL=0 DUT_EMPTY=0
PASS: Expected=216 Actual=216
T=1885000 | WR=0 RD=0 | DIN=235 | DOUT=216 | REF_COUNT=1 | DUT_FULL=0 DUT_EMPTY=0
T=1895000 | WR=0 RD=1 | DIN=235 | DOUT=216 | REF_COUNT=0 | DUT_FULL=0 DUT_EMPTY=0
T=1905000 | WR=0 RD=1 | DIN=235 | DOUT=235 | REF_COUNT=0 | DUT_FULL=0 DUT_EMPTY=1
PASS: Expected=235 Actual=235
T=1915000 | WR=0 RD=0 | DIN=235 | DOUT=235 | REF_COUNT=0 | DUT_FULL=0 DUT_EMPTY=1
EXPECTED UNDERFLOW (reference empty)
T=1925000 | WR=0 RD=1 | DIN=235 | DOUT=235 | REF_COUNT=0 | DUT_FULL=0 DUT_EMPTY=1
T=1935000 | WR=0 RD=1 | DIN=235 | DOUT=235 | REF_COUNT=0 | DUT_FULL=0 DUT_EMPTY=1
T=1945000 | WR=0 RD=0 | DIN=235 | DOUT=235 | REF_COUNT=0 | DUT_FULL=0 DUT_EMPTY=1
T=1955000 | WR=1 RD=0 | DIN=113 | DOUT=235 | REF_COUNT=1 | DUT_FULL=0 DUT_EMPTY=1
T=1965000 | WR=1 RD=0 | DIN=113 | DOUT=235 | REF_COUNT=1 | DUT_FULL=0 DUT_EMPTY=0
T=1975000 | WR=0 RD=0 | DIN=113 | DOUT=235 | REF_COUNT=1 | DUT_FULL=0 DUT_EMPTY=0
T=1985000 | WR=1 RD=0 | DIN=79 | DOUT=235 | REF_COUNT=2 | DUT_FULL=0 DUT_EMPTY=0
T=1995000 | WR=1 RD=0 | DIN=79 | DOUT=235 | REF_COUNT=2 | DUT_FULL=0 DUT_EMPTY=0
T=2005000 | WR=0 RD=0 | DIN=79 | DOUT=235 | REF_COUNT=2 | DUT_FULL=0 DUT_EMPTY=0
T=2015000 | WR=1 RD=0 | DIN=58 | DOUT=235 | REF_COUNT=3 | DUT_FULL=0 DUT_EMPTY=0
T=2025000 | WR=1 RD=0 | DIN=58 | DOUT=235 | REF_COUNT=3 | DUT_FULL=0 DUT_EMPTY=0
T=2035000 | WR=0 RD=0 | DIN=58 | DOUT=235 | REF_COUNT=3 | DUT_FULL=0 DUT_EMPTY=0
T=2045000 | WR=0 RD=1 | DIN=58 | DOUT=235 | REF_COUNT=2 | DUT_FULL=0 DUT_EMPTY=0
T=2055000 | WR=0 RD=1 | DIN=58 | DOUT=113 | REF_COUNT=2 | DUT_FULL=0 DUT_EMPTY=0
PASS: Expected=113 Actual=113
T=2065000 | WR=0 RD=0 | DIN=58 | DOUT=113 | REF_COUNT=2 | DUT_FULL=0 DUT_EMPTY=0
T=2075000 | WR=1 RD=0 | DIN=241 | DOUT=113 | REF_COUNT=3 | DUT_FULL=0 DUT_EMPTY=0
T=2085000 | WR=1 RD=0 | DIN=241 | DOUT=113 | REF_COUNT=3 | DUT_FULL=0 DUT_EMPTY=0
T=2095000 | WR=0 RD=0 | DIN=241 | DOUT=113 | REF_COUNT=3 | DUT_FULL=0 DUT_EMPTY=0
T=2105000 | WR=1 RD=0 | DIN=98 | DOUT=113 | REF_COUNT=4 | DUT_FULL=0 DUT_EMPTY=0
T=2115000 | WR=1 RD=0 | DIN=98 | DOUT=113 | REF_COUNT=4 | DUT_FULL=0 DUT_EMPTY=0
T=2125000 | WR=0 RD=0 | DIN=98 | DOUT=113 | REF_COUNT=4 | DUT_FULL=0 DUT_EMPTY=0
T=2135000 | WR=0 RD=1 | DIN=98 | DOUT=113 | REF_COUNT=3 | DUT_FULL=0 DUT_EMPTY=0
T=2145000 | WR=0 RD=1 | DIN=98 | DOUT=79 | REF_COUNT=3 | DUT_FULL=0 DUT_EMPTY=0
PASS: Expected=79 Actual=79
T=2155000 | WR=0 RD=0 | DIN=98 | DOUT=79 | REF_COUNT=3 | DUT_FULL=0 DUT_EMPTY=0
T=2165000 | WR=1 RD=0 | DIN=143 | DOUT=79 | REF_COUNT=4 | DUT_FULL=0 DUT_EMPTY=0
